[
	{
		"notice_id" : "NOTICE_0000000000000",
		"title" : "오직 10대만을 위한 SNS, 오잉에 오신 것을 환영합니다!",
    "category": "공지",
		"content" : "안녕하세요, 오직 10대만을 위한 SNS 오잉입니다!\r\n\r\n드디어 오잉 정식 서비스가 오픈되었습니다.\r\nNo Adult Zone 오잉은 10대 여러분이 주인이 되는 공간입니다.\r\n\r\n마음껏 표현하고, 소통하고, 공감하세요.\r\n랭커, 핫토픽, 도와줘BEST...다양한 컨텐츠 영역이 여러분을 기다리고 있습니다.\r\n오군과 잉양의 가이드에 따라 친구를 팔로우하고 여러분 주변에서 벌어지는 흥미로운 일상을 사진과 동영상으로 공유하세요.\r\n여러분도 레전드 랭커가 될 수 있습니다!\r\n\r\n10대가 만들고 키워가는 진짜 10대들 세상, \r\n오잉 속으로 뛰어들 준비, 되셨나요?\r\nLet's Go Go Go~~~~\r\n\r\n\r\n "
	},
	{
		"notice_id" : "NOTICE_0000000000003",
		"title" : "오잉에 오신 것을 환영합니다!",
    "category": "공지",
		"content" : "\r\n안녕하세요, 오직 10대만을 위한 SNS 오잉입니다!\r\n\r\n드디어 오잉 정식 서비스가 오픈되었습니다.\r\nNo Adult Zone 오잉은 10대 여러분이 주인이 되는 공간입니다.\r\n\r\n마음껏 표현하고, 소통하고, 공감하세요.\r\n랭커, 핫토픽, 도와줘BEST...다양한 컨텐츠 영역이 여러분을 기다리고 있습니다.\r\n오군과 잉양의 가이드에 따라 친구를 팔로우하고 여러분 주변에서 벌어지는 흥미로운 일상을 사진과 동영상으로 공유하세요.\r\n여러분도 레전드 랭커가 될 수 있습니다!\r\n\r\n10대가 만들고 키워가는 진짜 10대들 세상, \r\n오잉 속으로 뛰어들 준비, 되셨나요?\r\nLet's Go Go Go~~~~\r\n\r\n"
	},
	{
		"notice_id" : "NOTICE_0000000000004",
		"title" : "채팅방 성능 개선을 위한 메시지 읽음 카운트 기능 일시 중지 안내",
    "category": "공지",
		"content" : "안녕하세요!\r\n오직 10대만을 위한 SNS, 오잉 입니다.\r\n\r\n오잉 가입자수가 증가함에 따라 \r\n채팅방 내 속도 저하때문에 불편하다는 의견이 많이 접수되었습니다.\r\n\r\n이에 채팅방 성능에 가장 큰 영향을 미치는\r\n메시지 읽음 카운트(메시지 읽음 여부 확인) 기능을 잠시 중단하기로 결정하였습니다.\r\n현재 서버 수정 적용이 완료된 상태이며,\r\n계속 서비스/시스템 모니터링을 진행 중입니다.\r\n\r\n빠른 시일 내에 메신저 성능을 개선해 읽음 카운트 기능을 정상화 시킬 수 있도록 노력하겠습니다.\r\n서비스 이용에 불편을 드린 점 대단히 죄송합니다.\r\n꾸준히 개선되어가는 모습 보여드리는 오잉이 되겠습니다.\r\n\r\n감사합니다. "
	},
	{
		"notice_id" : "NOTICE_0000000000005",
		"title" : "푸시 알림 개선 작업 관련 안내",
    "category": "공지",
		"content" : "안녕하세요!\r\n오직 10대만을 위한 SNS, 오잉 입니다.\r\n\r\n그 동안 푸시 알림 관련 오류 및 불편사항이 많이 접수되었는데요.\r\n지난주부터 푸시 알림 발송시점 및 빈도를 전체적으로 조정하는 대대적인 개선 작업이 진행되었습니다.\r\n며칠 동안 알림이 울리지 않아 의아해하신 분들도 있으셨을거에요.\r\n\r\n어제부터 SNS 알림(친구추천 제외) 및 메신저 알림 쪽 서버 수정이 일부 반영되었습니다.\r\n금 주에는 미 반영 알림 적용 및 서비스/시스템 모니터링을 진행 예정이므로 다소 불안정할 수 있습니다.\r\n\r\n빠른 시일 내에 푸시 알림을 개선해 정상적으로 이용하실 수 있도록 노력하겠습니다.\r\n서비스 이용에 불편을 드린 점 대단히 죄송합니다.\r\n꾸준히 개선되어가는 모습 보여드리는 오잉이 되겠습니다.\r\n\r\n감사합니다.\r\n"
	},
	{
		"notice_id" : "NOTICE_0000000000008",
		"title" : "2019 오잉 어워드, 지금 공개 합니다!",
    "category": "공지",
		"content" : "2019년 오잉을 빛낸 그 기록들을 지금 공개 합니다!\r\n자세한 내용은 오잉 홈>이벤트 팝업을 확인해 주세요!\r\n\r\n지난 한해 오잉을 이용해주신 회원님들께 진심으로 감사 드리며, \r\n오잉 어워드에 선정되신 분들께는 기프티콘 편의점 1만원권을 선물로 드립니다.\r\n(2/3일 일괄발송, 중복 시 1회 제공)\r\n\r\n2020년 올 한해도 오잉과 함께해 주세요♥\r\n새해 복 많이 받으세요! \r\n\r\n오잉 운영자 드림\r\n"
	},
	{
		"notice_id" : "NOTICE_0000000000009",
		"title" : "100% 선물 증정! 친구 초대해서 친구랑 편의점 가자❤",
    "category": "이벤트",
		"content" : "1+1 친구 초대 이벤트. \r\n자세한 내용은 공지사항을 확인하세요!\r\n\r\n[ 1+1 친구 초대 이벤트]\r\n\r\n★ 이벤트 기간 ★ \r\n2월 3일(월) ~ 2월 16일(일)\r\n\r\n★ 이벤트 혜택 ★ \r\n친구 1명 가입 -> 편의점 1천원권 , \r\n친구 3명 가입 -> 편의점 3천원권 , \r\n친구 5명 가입 -> 편의점 5천원권 , \r\n친구 10명 가입-> 편의점 1만원권 \r\n\r\n★ 신규 가입 친구들은 편의점 1천원씩 증정!  (초대한 나도 1천원권 + 친구도 1천원권!)\r\n★ 친구들 초대하면 할수록 큰 혜택!!! (최대 10명까지)\r\n\r\n★ 참여   방법 ★\r\n1.내 친구를 오잉에 가입&접속 시킨다\r\n2.내 피드에 자유게시물을 작성 한다.(#초대한친구ID, #527942 태그 필수)\r\n3.친구랑 같이 편의점 Go! \r\n\r\n※ 경품은 이벤트 기간 동안 참여해주신 분들께 2/19(수) 일괄 발송됩니다.\r\n(단, 탈퇴회원 제외,신규회원 최초 1회만 제공 중복 제공 불가)\r\n\r\n★ 유의 사항 ★\r\n-신규 회원은 최초 1회만 제공 , 중복 제공 불가 \r\n-기 가입자 중 계정이 1개 이상인 회원은 최초 1번만 인정 \r\n-자유게시물 등록 시 #초대한친구ID , #527942 태그 필수 (태그 포함하지 않을 경우 경품 대상자 제외)\r\n-가입한 신규 회원이 탈퇴할 경우 경품 대상자 제외 (이벤트 기간 종료 후 2/19일까지 회원 유지 필수)\r\n-2/19일 이후 경품을 받지 못하신 분은 설정>고객센터 또는 service@ohing.net 으로 문의 부탁 드립니다.\r\n-부정한 방법으로 이벤트에 참여하실 경우 당첨이 취소될 수 있습니다.\r\n"
	},
	{
		"notice_id" : "NOTICE_0000000000010",
		"title" : "채팅목록과 오픈채팅 메뉴가 새로워졌어요!",
    "category": "공지",
		"content" : "오직 10대만을 위한 SNS, 오잉입니다!\r\n오잉의 채팅 메뉴가 새롭게 개편되었습니다.\r\n\r\n☝🏻 내가 참여한 채팅방을 한눈에! 채팅목록\r\n그동안 채팅목록, 오픈채팅 탭에 나뉘어져 있던\r\n참여 채팅방 리스트를 통합하였습니다.\r\n이제 채팅목록에서 내가 참여한 채팅방을\r\n한 눈에 확인하세요!\r\n\r\n✌🏻 주제태그별, 인기 순으로 풍성하게! 오픈채팅\r\n나와 같은 관심사를 가진 친구들을 만나는 오잉만의 방법,\r\n오픈채팅방이 더욱 풍성해졌습니다.\r\n주제태그별, 관심사별, 인기 순으로 \r\n더 많은 오픈채팅방을 추천해드려요.\r\n\r\n늘 새로운 모습을 보여드리고자 노력하는 오잉,\r\n앞으로도 많은 기대 부탁드립니다!\r\n\r\n \r\n\r\n "
	},
	{
		"notice_id" : "NOTICE_0000000000011",
		"title" : "'새학기 필수템' 올리고 아이스크림 득템하자❤",
    "category": "이벤트",
		"content" : "★[핫토픽] 2020년 새 학기 기념 이벤트★\r\n자세한 내용은 공지사항을 확인하세요!\r\n\r\n\r\n★ 이벤트 기간 ★ \r\n2월 24일(월) ~ 3월 1일(일)\r\n\r\n★ 이벤트 혜택 ★ \r\n배스킨라빈스 싱글레귤러 (기프티콘)\r\n\r\n★ 이벤트 참여 방법★\r\n\r\n[STEP 1]\r\n이번 주 핫토픽 주제 ''새학기 필수템'' 관련 게시물 작성한다.\r\n▶ 사진 첨부 필수!\r\n▶ #새학기필수템 태그 필수! \r\n\r\n[STEP 2]\r\n참여 완료!!\r\n\r\n★ 이벤트 경품 발송일★\r\n3월 4일(수) 일괄 발송.\r\n\r\n★ 유의 사항 ★\r\n-최초 작성한 게시물 1회만 허용, 중복 제공 불가합니다.\r\n-기 가입자 중 계정이 1개 이상인 회원은 최초 1번만 허용, 부정한 방법으로 이벤트에 참여하실 경우 당첨이 취소될 수 있습니다.\r\n-게시물 등록 시 사진 첨부는 필수 이며, #새학기필수템 태그도 필수입니다. (태그 포함하지 않을 경우, 무성의한 게시물 또는 주제와 관련 없는 게시물은 당첨자에서 제외될 수 있습니다.)\r\n-이벤트 경품은 회원정보에 있는 연락처로 발송됩니다. 잘못된 정보로 인한 불이익은 책임지지 않습니다. \r\n-탈퇴 회원 및 게시물을 삭제한 회원의 경우 당첨자에서 제외됩니다. 당첨자 선정을 위해 3/4(수) 까지 게시물 유지 부탁 드립니다.\r\n-3/4(수) 이후 경품을 받지 못하신 분은 설정>고객센터 또는 service@ohing.net 으로 문의 부탁 드립니다.\r\n"
	},
	{
		"notice_id" : "NOTICE_0000000000015",
		"title" : "오늘 저녁은 치킨이닭❗❗",
    "category": "이벤트",
		"content" : "★오픈 채팅 방 개편 기념 이벤트★\r\n자세한 내용은 공지사항을 확인하세요!\r\n\r\n친구들과 신나게 채팅하고 치킨 받자!!!!\r\n참여 인원이 많을 수록 당첨 확률 UP!! \r\n많이 얘기할수록 당첨 확률 UP!!UP!!\r\n내가 만든 방에 친구들이 없다면? 친구 초대하기 꾸욱! \r\n\r\n★ 이벤트 기간 ★ \r\n3월 5일(목) ~ 3월 12일(목)\r\n\r\n★ 이벤트 혜택 ★ \r\n[1등방 참여 전원] BHC 후라이드 치킨\r\n[2등방 참여 전원] 맘스터치 치파오치킨(커플)\r\n[3등방 참여 전원] 맘스터치 싸이버거 세트\r\n\r\n★ 이벤트 참여 방법 ★\r\n1.    이벤트 기간 동안 내가 만든 방의 친구들과 채팅하기(이전에 만든 오픈채팅방도 OK)\r\n1-1. 내가 참여한 오픈채팅방 친구들과 채팅하기(이전에 참여했던 오픈채팅방도 OK)\r\n2.    이벤트 참여 완료!\r\n\r\n★ 당첨 선정 기준 ★\r\n-이벤트 기간 동안 가장 활발하게 활동한 오픈채팅방을 우선으로 선정되며, 메시지 수 집계 시 무성의한 단음절 메시지는 자동 필터링 됩니다. ((예시) ㅏ,ㅁ,ㅣ,냐어ㅣㅐ타 등)\r\n\r\n★ 이벤트 경품 발송일★\r\n3월 13일(금) 일괄 발송.\r\n\r\n★ 유의 사항 ★\r\n-중복 당첨자의 경우 높은 순위의 경품이 제공되며 중복 당첨은 불가합니다. \r\n-이벤트 경품은 해당 기간 내에 당첨된 방에서 대화에 참여한 분들 께만 제공됩니다. 참여하지 않은 회원님은 경품이 제공되지 않습니다.\r\n-이벤트 경품은 회원정보에 있는 연락처로 발송됩니다. 잘못된 정보로 인한 불이익은 책임지지 않습니다. \r\n-탈퇴 회원 및 폭파된 오픈 채팅방의 경우 당첨에서 제외됩니다. \r\n-3/13(금) 이후 경품을 받지 못하신 분은 설정>고객센터 또는 service@ohing.net 으로 문의 부탁 드립니다.\r\n"
	},
	{
		"notice_id" : "NOTICE_0000000000017",
		"title" : "오늘 저녁은 치킨이닭❗❗ ",
    "category": "이벤트",
		"content" : "★ <오픈 채팅 방 개편 기념 이벤트> 당첨자 발표 ★ \r\n\r\n[1등방 - BHC 후라이드 치킨]\r\n방제 : 🌐오잉 전체이용방🤘\r\n\r\n[2등방 - 맘스터치 치파오치킨(커플)]\r\n방제 : 😆\r\n\r\n[3등방 - 맘스터치 싸이버거 세트]\r\n방제 : 이즈네 수다방\r\n\r\n★ 당첨자 경품 발송일★\r\n3월 13일(금) 저녁 일괄 발송.\r\n\r\n★ 유의 사항 ★\r\n-경품은 이벤트 기간 내에 당첨된 방에서 대화에 참여한 분들께만 제공됩니다. 참여하지 않은 회원님은 경품이 제공되지 않습니다.\r\n-중복 당첨자의 경우 높은 순위의 경품이 제공되며 중복 당첨은 불가합니다. \r\n-이벤트 경품은 회원정보에 있는 연락처로 발송됩니다. 잘못된 정보로 인한 불이익은 책임지지 않습니다. \r\n-탈퇴 회원 및 폭파된 오픈 채팅방의 경우 당첨에서 제외됩니다. \r\n-3/13(금) 이후 경품을 받지 못하신 분은 스팸함 한번 확인해 보시고, 스팸함에도 없을 경우 설정>고객센터 또는 service@ohing.net 으로 문의 부탁 드립니다.\r\n"
	},
	{
		"notice_id" : "NOTICE_0000000000020",
		"title" : "채팅 서비스 오류가 수정되었습니다.",
    "category": "공지",
		"content" : "안녕하세요, 오직 10대만을 위한 SNS 오잉입니다!\r\n\r\n최근 채팅 서비스 기능개선 중 발생한 부작용으로\r\n신규 수신된 메시지 출력되지 않음, 귓속말 리스트 노출 등\r\n채팅 서비스 오류가 발생하였습니다.\r\n서비스 이용에 불편을 드린 점 대단히 죄송합니다.\r\n\r\n해당 오류에 대한 수정작업을 진행하였으며,\r\n현재 메시지 수발신이 정상적으로 이루어지고 있습니다.\r\n아직 해결되지 못한 오류에 대해서도 빠르게 조치하도록 하겠습니다.\r\n\r\n늘 노력하고 성장하는 모습 보여드리는 오잉이 되겠습니다.\r\n서비스 이용에 불편을 드린 점 다시 한번 사과드립니다.\r\n\r\n감사합니다!\r\n"
	},
	{
		"notice_id" : "NOTICE_0000000000021",
		"title" : "오잉 이벤트 알림 수신 ON하면 경품 100% 당첨!⭐",
    "category": "이벤트",
		"content" : "★오잉 이벤트 알림 수신 동의 이벤트★\r\n자세한 내용은 공지사항을 확인하세요!\r\n\r\n이벤트 알림 수신 ON하면\r\nONE하는 꿀정보에! 더블로 경품까지!🎁\r\n\r\n★이벤트 기간★\r\n3월 20일(금) ~ 4월 5일(일) \r\n\r\n★이벤트 참여 방법★\r\n■ STEP 1\r\n[팝업이미지] 수신 동의 하러 가기 클릭 !\r\n(설정 페이지로 이동)\r\n\r\n■ STEP 2\r\n이벤트 알림 수신 동의 켜키(ON)\r\n\r\n■ STEP 3\r\n이벤트 응모 완료! \r\n4월 8일(수) 선물 받기.\r\n\r\n★이벤트 경품★ \r\n초코에몽(기프티콘) \r\n\r\n★이벤트 경품 발송일★\r\n4월 8일(수)\r\n\r\n★유의 사항★\r\n-회원 가입 시 약관 동의 에서 이벤트 알림 수신 동의를 선택 하신 분들은 이벤트에 자동 참여 됩니다.\r\n-경품은 이벤트 기간 종료될 때 까지 이벤트 정보 수신 동의 완료 되어 있는 회원에게 제공됩니다. (1인 1회 제공,중복 제공 불가) \r\n-4월 8일(수) 이후 경품을 받지 못하신 분들은 설정>고객센터 또는 service@ohing.net 으로 문의 부탁 드립니다. \r\n-부정한 방법으로 이벤트에 참여하실 경우 당첨이 취소될 수 있습니다. \r\n-탈퇴 회원은 경품이 제공 되지 않습니다.\r\n"
	},
	{
		"notice_id" : "NOTICE_0000000000022",
		"title" : "채팅 서비스 장애가 발생하였습니다.",
    "category": "공지",
		"content" : "안녕하세요\r\n오잉 운영자입니다.\r\n\r\n현재 채팅 서비스 업데이트 중 장애가 발생하여\r\n채팅 서비스 이용이 불가능합니다.\r\n이용에 불편을 드려 대단히 죄송합니다.\r\n빠른 시간 내에 복구할 수 있도록 최선을 다하겠습니다.\r\n\r\n감사합니다."
	},
	{
		"notice_id" : "NOTICE_0000000000023",
		"title" : "채팅 서비스 오류가 수정되었습니다.",
    "category": "공지",
		"content" : "안녕하세요 \r\n오잉 운영자입니다.\r\n\r\n채팅 서비스 장애가 복구되었습니다. \r\n이용에 불편을 드려 대단히 죄송합니다.\r\n\r\n안정적인 서비스 제공을 위해 늘 노력하는 오잉이 되겠습니다.\r\n감사합니다.\r\n\r\n"
	},
	{
		"notice_id" : "NOTICE_0000000000024",
		"title" : "채팅목록 접근시 앱 종료 오류 발생",
    "category": "공지",
		"content" : "안녕하세요\r\n오잉 운영자입니다.\r\n\r\n현재 채팅 서비스 업데이트 중 장애가 발생하여\r\n채팅 목록 접근시 앱이 비정상 종료되는 오류가 간헐적으로 발생하고 있습니다.\r\n\r\n해당 이슈를 해결한 앱 새 버전 1.08.01 이 플레이 스토어에 등록되어 검토중이오니,\r\n새 버전이 업데이트 될 때까지 조금만 기다려 주시면 감사하겠습니다.\r\n\r\n<급하게 채팅 서비스를 이용하셔야 할 경우>\r\n-설정>로그아웃 메뉴를 이용해 로그아웃 후 재로그인 하시면 채팅목록이 초기화되며 앱이 종료되지 않습니다.\r\n-단, 이 대응법은 휴대폰에 저장된 채팅 메시지 내용 및 목록 히스토리가 삭제되므로 급하게 채팅 이용이 필요하신 경우에만 사용해주세요.\r\n\r\n이용에 불편을 드려 대단히 죄송합니다.\r\n빠른 시간 내에 복구할 수 있도록 최선을 다하겠습니다.\r\n\r\n감사합니다."
	},
	{
		"notice_id" : "NOTICE_0000000000025",
		"title" : "2020 OHING 콘텐츠 크리에이터 모집 안내❤",
    "category": "이벤트",
		"content" : "★2020 OHING 콘텐츠 크리에이터 모집 안내★\r\n자세한 내용은 공지사항을 확인하세요! \r\n\r\nIOS 출시 기념! 오잉과 함께할 10대 콘텐츠 크리에이터를 찾습니다!\r\n성적,경력 필요 없음! 관종부터 다방면의 끼쟁이 능력자님들 모두 대환영!  \r\n나의 재능 펼치면서 능력 인정 받고! #총상금350만원까지! \r\n다채로운 콘텐츠로 오잉과 함께 성장할 톡톡 튀는 10대 여러분을 기다립니다!\r\n\r\n★ 모집 기간 ★\r\n2020년 6월 1일(월) ~ 6월 23일(화)\r\n*기간 연장 되었습니다!  \r\n\r\n★ 모집 발표 및 활동 안내 ★\r\n6월 26일(금) \r\n\r\n★ 모집 분야 ★\r\n전문가리뷰 : 게임, IT기기, 요리, ASMR 등 \r\n예능 : 개그 , 노래 , 연주 , 운동, 미술 등 \r\n일상 : 브이로그 , 먹방, 여행, 반려견, 등 \r\n뷰티/패션 : 메이크업, 패션 등 \r\n공부/입시 : 정보 , 리뷰, 강의 등\r\n\r\n★ 모집 인원 ★\r\n총 00명\r\n\r\n★ 자격 요건 ★\r\n주1-2회 콘텐츠 제작이 가능한 성실한 덕후님\r\n콘텐츠로 공감을 끌어내는 이슈 메이커\r\n인플루언서 또는 연예인 지망생  \r\n뭐든 하나에 미치면 밤새는게 일상인 열정맨\r\n무에서 유를 창조하는 금손 능력자\r\n\r\n★ 활동 내용 ★\r\n오잉 앱에서 자신의 계정으로 활동 하며, \r\n또래 친구들과 공감대를 형성할 수 있는 자신만의 컨텐츠를 생산 (주 1~2회,사진,영상, 칼럼 등 형식 자유) \r\n\r\n★ 활동 혜택 ★\r\n양질의 콘텐츠 생산을 위한 활동비 지원\r\n우수 크리에이터에게 총 350만원 상당의 포상\r\n활동 종료 시 증명서 발급\r\n오잉 공식 SNS 채널에 내가 만든 콘텐츠를 홍보 할 수 있는 기회\r\n오잉 이벤트 우선권 및 행사 초대권\r\n\r\n★시상 내용★\r\n대상(200만원),최우수상(100만원),우수상(52만원)\r\n\r\n★ 지원 및 모집요강 ★\r\nhttps://forms.gle/xKHdSL6kC9WEgzeo6\r\n\r\n★ 지원 방법 ★\r\n지원서 작성 후 제출 \r\n\r\n★ 기타 문의 ★\r\nservice@ohing.net\r\n\r\n★ 유의 사항 ★\r\n-제출 완료된 등록 정보는 다시 수정할 수 없으므로 정확히 입력 바랍니다.\r\n-동일인에 대한 중복 당첨 불가, 부정한 방법으로 참여 시 크리에이터 선정에 제외될 수 있습니다.\r\n-상기 내용은 내부 사정으로 변경될 수 있습니다.\r\n-시상 수준에 적격한 콘텐츠가 없을 경우, 시상이 축소·취소될 수 있습니다.\r\n\r\n\r\n"
	},
	{
		"notice_id" : "NOTICE_0000000000026",
		"title" : "6월 12일(금) 채팅 성능 업그레이드 안내",
    "category": "공지",
		"content" : "오직 10대만을 위한 SNS, 오잉입니다!\r\n\r\n오잉이 더욱 빠르고 안정적인 채팅 서비스 제공을 위해 \r\n휴대폰 로컬 DB초기화 및 시스템 점검을 진행합니다.\r\n이용에 불편을 드려 대단히 죄송합니다.\r\n\r\n\r\n☝🏻 중요한 채팅 내용은 미리 캡쳐하세요!\r\n\r\n   -개선버전 앱 업데이트 시 휴대폰에 저장된 기존 채팅 \r\n    내용이 삭제 됩니다.\r\n   -중요한 대화 내용은 미리 캡쳐 해주세요.\r\n\r\n\r\n✌🏻 작업 중 오잉 서비스가 중지 됩니다!\r\n\r\n   -작업 일시 : 6월 12일(금)  09:00 ~ 15:00\r\n\r\n\r\n늘 새로운 모습을 보여드리고자 노력하는 오잉,\r\n더욱 개선된 서비스로 보답하겠습니다!\r\n\r\n"
	},
	{
		"notice_id" : "NOTICE_0000000000030",
		"title" : "오잉 10문 10답 챌린지",
    "category": "이벤트",
		"content" : "★ OHING 10문 10답 챌린지 참여 안내 ★\r\n자세한 내용은 공지사항을 확인하세요!\r\n\r\n★ 이벤트 기간 ★\r\n2020년 6월 10일(수) ~ 6월 22일(월)\r\n\r\n★ 당첨 인원 ★  \r\n참여 인원 모두\r\n\r\n★ 경품 발표 및 안내 ★ \r\n6월 26일 (금)\r\n\r\n★ 참여 방법 ★\r\n[godsejung] 10문 10답 챌린지 피드 참고\r\n\r\n챌린지를 이어갈 다음 유저 태깅 필수!\r\n#10문10답챌린지 해시태그 필수!\r\n\r\n★ 기타 문의 ★\r\nservice@ohing.net\r\n"
	},
	{
		"notice_id" : "NOTICE_0000000000031",
		"title" : "오잉 채팅 ver 2.0 오픈!",
    "category": "공지",
		"content" : "오직 10대만을 위한 SNS, 오잉입니다!\r\n\r\n서비스 점검 시간이 길어져 많이 기다리셨지요?\r\n이용에 불편을 드려 정말 죄송합니다.\r\n\r\n드디어 더욱 빠르고 안정적인 \r\n오잉 채팅 ver 2.0이 오픈되었습니다!\r\n이번 업그레이드로 채팅 서비스 구조가 대폭 변경되었는데요,\r\n이전 데이터 충돌시 발생할 수 있는 오류 상황과 해결 방법을 안내해 드립니다.\r\n\r\n[ 발생 가능 오류 ]\r\nㆍ대화방의 채팅 순서가 뒤바뀌었어요!\r\nㆍ새로 수신된 메시지가 보이지 않아요!\r\nㆍ채팅방 내에서 계속 로딩서클이 돌아요!\r\n\r\n[ 해결 방법 ] \r\n1. 설정>로그아웃\r\n2. 앱 완전 종료\r\n3. 실행 후 재로그인\r\n\r\n안내된 방법으로도 문제가 해결되지 않을 경우\r\n주저 마시고 service@ohing.net으로 문의해주세요!\r\n늘 노력하는 오잉이 되겠습니다!\r\n"
	},
	{
		"notice_id" : "NOTICE_0000000000032",
		"title" : "선팔하면 초복엔 치킨이닭!!! ",
    "category": "이벤트",
		"content" : "★🐓계이득! 초복 이벤트1 [SFBG]★\r\n자세한 내용은 공지사항을 확인하세요!\r\n\r\n오잉이 초복에 치킨 100마리를 쏩니다! \r\n볼거리👀와 치킨🍗이 콸콸콸 💦\r\n친구도 사귀고~ 치킨도 먹고~ 마! 니 내랑 친구하자! \r\n주라주라 친구해주라 ♥\r\n\r\n★ 이벤트 기간 ★ \r\n2020년  7월 6일(월) ~ 7월 14일(화)\r\n\r\n★ 이벤트 혜택 ★ \r\nBHC 후라이드치킨+콜라 – 100명\r\n\r\n★ 이벤트 참여 방법 ★\r\nSTEP 1. 오잉 앱에 로그인을 한다.\r\nSTEP 2. 친해지고 싶은 친구, 새로 온 친구를 팔로잉 한다. \r\nSTEP 3. 참여 완료 ! 초복에 치킨 먹을 준비! \r\n\r\n★ 당첨자 발표 및 경품 발송일★\r\n치킨 발송일 : 7월 16일 (초복)\r\n\r\n※ 치킨 받는 TIP ※\r\n팔로잉 많은 순으로 100명에게 치킨 선물! \r\n오잉 앱 하단 친구 찾기 탭에 나와 같은 취미,관심사,학교 친구들이 많아요! \r\n팔로잉 요청 많이 하면 할수록 당첨 확률 UP! ❤️💜\r\n\r\n★ 유의 사항 ★\r\n-경품 발송 일에 팔로잉 수가 변경 되어 있을 경우 당첨이 취소될 수 있습니다.  \r\n-중복 당첨자는 없으며 부정한 방법으로 이벤트에 참여한 사실이 확인될 경우 당첨이 취소될 수 있습니다.\r\n-이벤트 경품은 회원정보에 있는 연락처로 발송됩니다. 잘못된 정보로 인한 불이익은 책임지지 않습니다. \r\n-본 이벤트는 당사 사정에 의해 사전 예고 없이 변경되거나 취소될 수 있습니다.\r\n-추후 경품을 받지 못하신 분은 설정>고객센터 또는 service@ohing.net 으로 문의 부탁 드립니다. \r\n\r\n"
	},
	{
		"notice_id" : "NOTICE_0000000000033",
		"title" : "다른 그림 찾으면 치킨 준닭!!!!",
    "category": "이벤트",
		"content" : "★🐔계이득 복날 이벤트 2 ★\r\n자세한 내용은 공지사항을 확인하세요!\r\n\r\n오잉의 이모티콘!\r\n오군,잉양,딩구와루루의 다른 그림 찾기! 게임 시작! 🎮\r\n1분 안에 총 3개의 다른 그림을 찾아 댓글을 달아주세요! 📝\r\n추첨을 통해 총 52명에게 치킨🍗 을 드립니다.\r\n\r\n✅이벤트 기간\r\n2020년 7월 17일(금) ~ 7월 23일(목)\r\n\r\n✅이벤트 혜택\r\nBHC 후라이드 치킨 + 콜라 - 52명\r\n\r\n✅이벤트 참여 방법\r\nSTEP 1. 이벤트 게시물에 있는 총 3개의 다른 그림을 1분안에 찾아 댓글을 단다! (godsejung 님 게시물)\r\nSTEP 2. 참여 완료! 중복에 치킨 먹을 준비!\r\n\r\n✅ 당첨자 발표 및 경품 발송일\r\n7월 24일(금) (중복 전전날)\r\n\r\n🍗치킨 받는 TIP⁉️\r\n문제가 너무 어렵다고요? 사진을 클릭해서 확대해서 보세요! 정답 댓글은 필.수! 입니다.\r\n(정답 예시: 세번째줄 2번/네번째줄 5번 /두번째줄 6번)\r\n\r\n❗️유의사항 ❗️\r\n-정답을 꼭 댓글로 달아 주셔야 추첨 가능하며, 당첨자는 댓글 작성한 참여자 중 랜덤 추첨 됩니다.( 단,탈퇴회원 제외)\r\n-중복 당첨자는 없으며 부정한 방법으로 이벤트에 참여한 사실이 확인될 경우 당첨이 취소될 수 있습니다.\r\n-이벤트 경품은 회원 정보에 있는 연락처로 발송됩니다. 잘못된 정보로 인한 불이익은 책임지지 않습니다.\r\n-본 이벤트는 당사 사정에 의해 내용이 변경되거나 취소될 수 있습니다.\r\n-추후 경품을 받지 못하신 분은 설정>고객센터 또는 service@ohing.net 으로 문의 부탁 드립니다."
	},
	{
		"notice_id" : "NOTICE_0000000000034",
		"title" : "7월23일 시스템 점검 안내",
    "category": "공지",
		"content" : "오직 10대만을 위한 SNS, 오잉입니다!\r\n\r\n더욱 빠르고 안정적인 서비스 제공을 위해\r\n긴급 시스템 점검 작업을 진행합니다.\r\n이용에 불편을 드려 대단히 죄송합니다.\r\n더욱 개선된 서비스로 보답하겠습니다!\r\n\r\n작업일시: 7월23일 오전10시~11시\r\n작업 시간 중 서비스 접속이 불가능합니다."
	},
	{
		"notice_id" : "NOTICE_0000000000036",
		"title" : "퀴즈 풀고, 관심사 키워드 등록하면 치킨 쏜닭! ",
    "category": "이벤트",
		"content" : "★🐔계이득 복날 이벤트 3 ★\r\n자세한 내용은 공지사항을 확인하세요!\r\n\r\n오잉의 인기 관심사 1위를 댓글에 작성하고 📝\r\n내 관심사를 최대 10개까지 등록 하면, \r\n추첨을 통하여 총 25분께 치킨🍗을 선물로 드립니다!\r\n\r\n★ 이벤트 기간 ★ \r\n2020년  8월 6일(목) ~ 8월 13일(목)\r\n\r\n★ 이벤트 혜택 ★ \r\nBHC 후라이드 치킨+콜라1.25L – 25명\r\n\r\n★ 이벤트 참여 방법 ★\r\n1️⃣ 이벤트 게시물에 있는 오잉의 인기 관심사 1위를 추측하여 정답을 댓글에 작성한다.\r\n2️⃣ 설정> 관심사 키워드에서 내 관심사를 최대 10개까지 등록한다.\r\n3️⃣ 참여 완료 ! 말복에 치킨 먹을 준비! \r\n\r\n★ 당첨자 발표 및 경품 발송일 ★\r\n8월 14일(금) 말복 전 날\r\n\r\n※ 치킨 받는 TIP\r\n☑️인기 관심사 1위 힌트는 이벤트 게시물의 두번째 이미지 속에서 찾아보세요! 😉\r\n☑️정답 댓글 작성은 필수‼️ 댓글부터 달고, 설정> 관심사 키워드에서 내관심사를 최대 10개까지 등록해주세요!\r\n\r\n★ 유의 사항 ★\r\n-퀴즈의 정답을 댓글에 작성하고 관심사 키워드를 최대 10개까지 등록해 주신 분들에 한하여 랜덤 추첨 됩니다. (단, 탈퇴회원 제외, 기존에 10개 등록되어 있으신 분들도 인정됩니다.) \r\n-중복 당첨자는 없으며 부정한 방법으로 이벤트에 참여한 사실이 확인될 경우 당첨이 취소될 수 있습니다.  \r\n-이벤트 경품은 회원정보에 있는 연락처로 발송됩니다. 잘못된 정보로 인한 불이익은 책임지지 않습니다. \r\n-본 이벤트는 당사 사정에 의해 내용이 변경되거나 취소될 수 있습니다.\r\n-추후 경품을 받지 못하신 분은 설정>고객센터 또는 service@ohing.net 으로 문의 부탁 드립니다. \r\n\r\n\r\n\r\n"
	},
	{
		"notice_id" : "NOTICE_0000000000037",
		"title" : "8월27일 시스템 점검 시간 연기 안내",
    "category": "공지",
		"content" : "오직 10대만을 위한 SNS, 오잉입니다!\r\n\r\n8월27일(목) 오전 10시부터 진행 예정이었던 시스템 점검이\r\n구글 앱 검수 지연으로 연기되었습니다.\r\n\r\n점검 일정이 확정되는대로 다시 공지드리도록 하겠습니다.\r\n이용에 불편을 드려 대단히 죄송합니다.\r\n"
	},
	{
		"notice_id" : "NOTICE_0000000000038",
		"title" : "안드로이드앱 1.11.00 버전 동영상 업로드 이슈",
    "category": "공지",
		"content" : "오직 10대만을 위한 SNS, 오잉입니다!\r\n\r\n이번 업데이트시 앱 성능 향상을 위한 동영상 컨버팅 방식 변경이 있었는데요,\r\n동영상 업로드시 게시글 등록이 되지 않는 이슈가 간헐적으로 발생하고 있습니다.\r\n\r\n현재 원인 파악에 있으며 빠르게 수정될 수 있도록 최선을 다하겠습니다.\r\n이용에 불편을 드려 대단히 죄송합니다!\r\n늘 노력하는 오잉이 되겠습니다.\r\n\r\n "
	},
	{
		"notice_id" : "NOTICE_0000000000039",
		"title" : "android 1.12.03, iOS 1.3.1 버전 업데이트",
    "category": "업데이트",
		"content" : "오직 10대만을 위한 SNS 오잉입니다!\r\n\r\n갑자기 오잉 앱이 로그아웃되어 깜짝 놀라셨죠?\r\n보다 쾌적한 앱 사용을 위하여 로그인 체크 방식을 변경하였는데요,\r\n최초 1회 재로그인이 필요해 일괄 로그아웃을 진행하였습니다.\r\n이용에 불편을 드려 죄송합니다! \r\n\r\n오늘 배포된 새 버전의 개선 및 수정사항 안내해드립니다. \r\n\r\n[ 공통반영사항 ]\r\n- 시원한 크기의 홈 배너 영역이 신설되었습니다. 이제 중요한 오잉 소식을 더 편리하게 확인하실 수 있습니다!\r\n- 로그인 체크 방식이 변경되었습니다. 불필요한 로그인 확인 횟수를 줄여 더 쾌적하게 오잉 앱을 사용하실 수 있게 됩니다.\r\n\r\n[ android 1.12.03 ]\r\n- 태블릿 가입시 본인인증 페이지 잘림 오류를 수정하였습니다.\r\n- 태블릿 로그인 오류를 수정하였습니다.\r\n- 채팅목록 로딩 방식을 변경하여 속도를 개선하였습니다.\r\n- 기타 마이너 오류를 수정하였습니다.\r\n\r\n[ iOS 1.3.1 ]\r\n- 좋아요 카운트 오류를 수정하였습니다.\r\n- 기타 마이너 오류를 수정하였습니다.\r\n\r\n항상 발전하고 새로워질 오잉, 많은 기대 바랍니다!  \r\n"
	},
	{
		"notice_id" : "NOTICE_0000000000041",
		"title" : "오잉 운영자 계정(@ohing_official)팔로우 이벤트! ",
    "category": "이벤트",
		"content" : "💡오잉 운영자 계정(@ohing_official)팔로우 하고 아이스크림 받자!🍦\r\n자세한 내용은 공지사항을 확인하세요!\r\n\r\n오잉 운영자 계정을 팔로우 ☝️하고 다양한 오잉 소식 💡과 이벤트 소식 🔔을 받아보세요!\r\n추첨을 통해 총 💯분께 배라 아이스크림 🍦 을 드립니다.\r\n\r\n📌 이벤트 기간  \r\n2020년  9월 7일(월) ~ 9월 22일(화)\r\n\r\n📌 이벤트 혜택  \r\n배스킨라빈스 싱글레귤러 – 100명\r\n\r\n📌 이벤트 참여 방법 \r\n1️⃣ 오잉 앱에서 운영자 계정을 찾아 팔로우 버튼을 눌러 주세요. (@ohing_official)\r\n2️⃣ @ohing_official 계정에 있는 팔로우 이벤트 게시물에 '참여 완료' 댓글을 입력해주세요. \r\n3️⃣  참여 완료 ! \r\n\r\n📌 당첨자 발표 및 경품 발송일 \r\n9월 23일(수) 오후 발송 예정\r\n\r\n💚당첨 TIP💚\r\n☑️ 팔로우 이벤트 게시물에 좋아요, 댓글 작성하면 당첨확률 UP 😉\r\n\r\n⭐️ 유의 사항 ⭐️\r\n-경품 발송일까지는 팔로우를 유지해 주셔야 추첨 및 경품 발송이 가능합니다. (단, 탈퇴회원 제외)\r\n-중복 당첨자는 없으며 부정한 방법으로 이벤트에 참여한 사실이 확인될 경우 당첨이 취소될 수 있습니다.  \r\n-이벤트 경품은 회원정보에 있는 연락처로 발송됩니다. 잘못된 정보로 인한 불이익은 책임지지 않습니다. \r\n-본 이벤트는 당사 사정에 의해 내용이 변경되거나 취소될 수 있습니다.\r\n-추후 경품을 받지 못하신 분은 설정>고객센터 또는 service@ohing.net 으로 문의 부탁 드립니다. \r\n"
	},
	{
		"notice_id" : "NOTICE_0000000000042",
		"title" : "앱 신규 버전 업데이트",
    "category": "업데이트",
		"content" : "오직 10대만을 위한 SNS 오잉입니다!\r\n\r\n갑자기 오잉 앱이 로그아웃되어 깜짝 놀라셨죠?\r\n보다 쾌적한 앱 사용을 위하여 \r\n로그인 체크 방식을 변경하였는데요,\r\n최초 1회 재로그인이 필요해 일괄 로그아웃을 진행하였습니다.\r\n이용에 불편을 드려 죄송합니다! \r\n\r\n오늘 배포된 새 버전의 개선 및 수정사항 안내해드립니다. \r\n\r\n[ 공통반영사항 ]\r\n- 시원한 크기의 홈 배너 영역이 신설되었습니다. \r\n이제 중요한 오잉 소식을 더 편리하게 확인하실 수 있습니다!\r\n- 로그인 체크 방식이 변경되었습니다. \r\n불필요한 로그인 확인 횟수를 줄여 더 쾌적하게 오잉 앱을 사용하실 수 있게 됩니다.\r\n\r\n항상 발전하고 새로워질 오잉, 많은 기대 바랍니다!  \r\n"
	},
	{
		"notice_id" : "NOTICE_0000000000043",
		"title" : "오잉 추석 맞이 출석 이벤트 ",
    "category": "이벤트",
		"content" : "추석 때 남는 건 사진 뿐! [[오잉 추석 맞이 출석 이벤트!]]\r\n자세한 내용은 공지사항을 확인하세요!\r\n\r\n추석 연휴 동안 매일매일 게시물✍ 올리면 \r\n선물🎁이 팡팡팡! 🧨🎆\r\n추첨을 통해 도미노피자🍕 와 배라 파인트 쿠폰🍦 을 드립니다. 추석 선물🎁 받으러 긔긔 👉\r\n\r\n★ 이벤트 기간 ★ \r\n2020년  9월 30일(수) ~ 10월 4일(일)\r\n\r\n★ 이벤트 혜택 ★ \r\n블랙앵거스 스테이크 피자(오리지널)L+콜라1.25L- 10명 , \r\n배라 파인트- 5명\r\n\r\n★ 이벤트 참여 방법 ★\r\n1️⃣ 오잉 앱에 매일 로그인을 한다.\r\n2️⃣ 추석 연휴 동안 매일 게시물을 올린다. (#2020추석 태그포함)\r\n\r\n★ 당첨자 발표 및 경품 발송일 ★\r\n10월 7일(수) 오후 발송 예정\r\n\r\n❗ 당첨 TIP ❗\r\n☑️ 추석 연휴 동안 1일 1게시물을 등록해주세요! ✍\r\n☑️ 깜빡할 것 같은 분들은 알람⏰ 맞춰 놓는 센스! 😉\r\n\r\n★ 유의 사항 ★\r\n-게시물에  #2020추석 태그를 꼭 포함해 주세요.\r\n-미션완료한 분들께는 추첨을 통해 4만원 상당의 피자 세트를 10분께 드리며, 그 외 참여해 주신 분들도 추첨을 통해 배라 파인트 쿠폰을 5분께 드립니다.\r\n-경품 발송일까지는 게시물을 유지해 주셔야 추첨 및 경품 발송이 가능합니다. (단, 탈퇴회원 제외)\r\n-중복 당첨자는 없으며 무성의한 게시글, 부정한 방법으로 이벤트에 참여한 사실이 확인될 경우 당첨이 취소될 수 있습니다.  \r\n-이벤트 경품은 회원정보에 있는 연락처로 발송됩니다. 잘못된 정보로 인한 불이익은 책임지지 않습니다. \r\n-본 이벤트는 당사 사정에 의해 내용이 변경되거나 취소될 수 있습니다.\r\n-추후 경품을 받지 못하신 분은 설정>고객센터 또는 service@ohing.net 으로 문의 부탁 드립니다. \r\n"
	},
	{
		"notice_id" : "NOTICE_0000000000044",
		"title" : "10월15일 시스템 점검 안내",
    "category": "공지",
		"content" : "\r\n오직 10대만을 위한 SNS, 오잉입니다!\r\n\r\n더욱 빠르고 안정적인 서비스 제공을 위해\r\n시스템 점검 작업을 진행합니다.\r\n이용에 불편을 드려 대단히 죄송합니다.\r\n더욱 개선된 서비스로 보답하겠습니다!\r\n\r\n작업일시: 10월15일(목) 오전10시~12시\r\n작업내용: 관심사DB 마이그레이션, 검색 엔진 적용\r\n작업시간 중 서비스 접속이 불가능합니다."
	},
	{
		"notice_id" : "NOTICE_0000000000045",
		"title" : "오잉 신춘문예 N행시 이벤트 ",
    "category": "이벤트",
		"content" : "N행시 장인들 모여라! <오잉 신춘문예 N행시 이벤트!>\r\n자세한 내용은 공지사항을 확인하세요!\r\n\r\n게시물에 첨부된 오잉 광고 영상을 보고 마음에 드는 영상의 메시지(제시어)를 골라 마이피드에 N행시를 (2행시,3행시) 지어 올려주세요! 📝\r\n\r\n센스있고 기발한 글 올려 주신 분들 중 추첨을 통해 에어팟 프로 🎧 를 선물로 드립니다. \r\n\r\n여러분의 센스 있는 드립력을 기대할게요! 😎\r\n오잉러들아 센스 시동 걸자 드릉드릉 💨\r\n\r\n**** 영상 메시지(제시어) **** \r\n우리들만의 [고민]이 있다. \r\n우리들만의 [인싸]이 있다. \r\n우리들만의 [이야기]이 있다. \r\n우리들만의 [일상]이 있다. \r\n우리들만의 [꿀팁]이 있다. \r\n\r\n★ 이벤트 기간 ★ \r\n2020년 10월 28일(수) ~ 11월 16일(월)\r\n\r\n★ 이벤트 혜택 ★ \r\n에어팟 프로 – 1명\r\n\r\n★ 이벤트 참여 방법 ★\r\n1. 게시물 속 오잉 광고 영상을 보고 마음에 드는 영상의 주제(제시어)를 Pick! 👆\r\n2. 마이피드에 N행시를 지어 올려주세요!\r\n3. 피드 올릴 때 #N행시이벤트 태그 필수! \r\n4. 응모 완료!\r\n\r\n★ 당첨자 발표  ★\r\n11월 18일(수) 오후 예정\r\n\r\n★ 심사기준 ★\r\n센스있고 기발한 글 (좋아요가 많으면 당첨확률 UP!)\r\n\r\n★ 유의 사항 ★\r\n-게시물에 꼭 #N행시이벤트 태그를 포함해 주세요.(태그를 포함하지 않을 경우 좋아요가 많더라도 당첨자 후보에서 제외될 수 있습니다.)\r\n-본인이 누른 좋아요 수는 심사에 반영되지 않습니다. \r\n-경품 발송일까지는 게시물을 유지해 주셔야 추첨 및 경품 발송이 가능합니다. (단, 탈퇴회원 제외)\r\n-중복 당첨자는 없으며 무성의한 게시글,도용 등의 부정한 방법으로 이벤트에 참여한 사실이 확인될 경우 당첨이 취소될 수 있습니다.  \r\n-이벤트 경품은 회원정보에 있는 연락처로 발송됩니다. 잘못된 정보로 인한 불이익은 책임지지 않습니다. \r\n-본 이벤트는 당사 사정에 의해 내용이 변경되거나 취소될 수 있습니다.\r\n-본 이벤트의 경품에 대한 제세공과금은 주최사 (주) 오잉미디어 부담이며, 추후 제세공과금 신고 처리를 위하여 개별 안내 드릴 예정입니다.\r\n-추후 경품을 받지 못하신 분은 설정>고객센터 또는 service@ohing.net 으로 문의 부탁 드립니다. \r\n"
	},
	{
		"notice_id" : "NOTICE_0000000000046",
		"title" : "<캡틴> 팔로우&기대 댓글 이벤트 ",
    "category": "이벤트",
		"content" : "오잉 X 캡틴 콜라보 기념 이벤트!\r\n자세한 내용은 공지사항을 확인하세요!\r\n\r\n십대오디션 <캡틴>공식 계정(@capteen)을 팔로우하고 \r\n@ohing_official 의 <캡틴> 이벤트 게시물에 기대 댓글을 달아주세요! 📝\r\n추첨을 통해 최애 야식 치킨을🍗 선물로 드립니다. 😎\r\n\r\n★ 이벤트 기간 ★ \r\n2020년 11월 12일(목) ~ 11월 23일(월)\r\n\r\n★ 이벤트 혜택 ★ \r\n굽네 고추 바사삭 치킨 – 5명\r\n\r\n★ 이벤트 참여 방법 ★\r\n1. 캡틴 공식 계정(@capteen)을 팔로우 한다.👆 \r\n2. @ohing_official 의 <캡틴> 이벤트 게시물에 기대 댓글을 남긴다. (기대평을 먼저 남기고 팔로우 해도 응모 완료!)\r\n3. 응모 완료! \r\n\r\n★ 당첨자 발표 및 경품 발송일★\r\n11월 25일(수) 오후 발표 및 기프티콘 발송 예정\r\n\r\n★ 심사기준 ★\r\n<캡틴> 계정 팔로우는 필수‼️\r\n기대 댓글까지 남기면 당첨확률 UP❗\r\n\r\n★ 유의 사항 ★\r\n-경품 발송일까지는 팔로우와 댓글을 유지해 주셔야 추첨 및 경품 발송이 가능합니다. (단, 탈퇴회원 제외)\r\n-중복 당첨자는 없으며 무성의한 게시글,도용 등의 부정한 방법으로 이벤트에 참여한 사실이 확인될 경우 당첨이 취소될 수 있습니다.  \r\n-이벤트 경품은 회원정보에 있는 연락처로 발송됩니다. 잘못된 정보로 인한 불이익은 책임지지 않습니다. \r\n-본 이벤트는 당사 사정에 의해 내용이 변경되거나 취소될 수 있습니다.\r\n-추후 경품을 받지 못하신 분은 설정>고객센터 또는 service@ohing.net 으로 문의 부탁 드립니다. \r\n"
	},
	{
		"notice_id" : "NOTICE_0000000000047",
		"title" : "100% 당첨🎉 다시 돌아온 친구 초대 이벤트!",
    "category": "이벤트",
		"content" : "💚친구와 함께 즐기는 오잉💚\r\n친구 초대하고! 100% 선물 받고!\r\n\r\n★ 참여 방법★\r\n1. 나와 함께 선물 받을 친구를 오잉에 가입시킨다.\r\n2. @ohing_official 피드 > 친구초대 이벤트 게시글 > 가입시킨 친구의 아이디를 댓글로 작성\r\n3. 친구랑 편의점 털러 꼬우🏃‍♀️🏃‍♂️\r\n\r\n★이벤트 기간★\r\n2021년 6월 11일 ~ 2021년 7월 12일\r\n\r\n★경품 내용★\r\n- 기존 회원 : \r\n친구 1명 초대 시 > 편의점 3천원 금액권 1장\r\n친구 3명 초대 시 > 편의점 1만원 금액권 1장\r\n\r\n- 신규 회원 : \r\n편의점 3천원 금액권 1장 (본 이벤트를 통해 가입한 회원만 해당)\r\n\r\n★경품 발송★\r\n이벤트 종료 후 7일 이내\r\n\r\n★유의사항★\r\n- 신규 회원은 최초 1회에 한하여 경품이 발송되며, 중복 제공이 불가합니다. (단, 탈퇴 회원은 제외됩니다)\r\n- 여러 계정으로 참여한 경우, 최초 참여 계정만 이벤트 참여가 인정됩니다.\r\n- 부정한 방법으로 이벤트에 참여한 경우 당첨이 취소될 수 있습니다.  \r\n- 부정확한 개인 정보로 인한 불이익은 당사가 책임지지 않습니다. 회원 정보를 꼭 확인해 주세요.\r\n- 본 이벤트는 당사 사정에 따라 취소 변경 및 종료될 수 있습니다.\r\n- 기타 문의 사항은 설정>고객센터 또는 service@ohing.net 으로 문의 바랍니다."
	}
]
